<?xml version="1.0" encoding="UTF-8" standalone="no"?>
<!-- Created with Inkscape (http://www.inkscape.org/) -->

<svg
   xmlns:dc="http://purl.org/dc/elements/1.1/"
   xmlns:cc="http://creativecommons.org/ns#"
   xmlns:rdf="http://www.w3.org/1999/02/22-rdf-syntax-ns#"
   xmlns:svg="http://www.w3.org/2000/svg"
   xmlns="http://www.w3.org/2000/svg"
   xmlns:sodipodi="http://sodipodi.sourceforge.net/DTD/sodipodi-0.dtd"
   xmlns:inkscape="http://www.inkscape.org/namespaces/inkscape"
   width="35.851734mm"
   height="19.146772mm"
   viewBox="0 0 35.851733 19.146773"
   version="1.1"
   id="svg48693"
   inkscape:version="0.92.3 (2405546, 2018-03-11)"
   sodipodi:docname="mato1.svg">
  <defs
     id="defs48687">
    <clipPath
       id="clipPath40-6"
       clipPathUnits="userSpaceOnUse">
      <path
         inkscape:connector-curvature="0"
         id="path38-1"
         d="m 7791.33,45662.4 c -72.72,0 -131.69,59 -131.69,131.7 0,72.7 58.97,131.7 131.69,131.7 72.74,0 131.69,-59 131.69,-131.7 0,-72.7 -58.95,-131.7 -131.69,-131.7" />
    </clipPath>
    <clipPath
       id="clipPath68-1"
       clipPathUnits="userSpaceOnUse">
      <path
         inkscape:connector-curvature="0"
         id="path66-5"
         d="m 3437.41,48436.1 c -54.55,0 -98.77,44.2 -98.77,98.7 0,54.6 44.22,98.8 98.77,98.8 54.55,0 98.76,-44.2 98.76,-98.8 0,-54.5 -44.21,-98.7 -98.76,-98.7" />
    </clipPath>
    <clipPath
       id="clipPath100-9"
       clipPathUnits="userSpaceOnUse">
      <path
         inkscape:connector-curvature="0"
         id="path98-8"
         d="m 12923,47917.6 c -54.5,0 -98.7,44.2 -98.7,98.7 0,54.6 44.2,98.8 98.7,98.8 54.6,0 98.8,-44.2 98.8,-98.8 0,-54.5 -44.2,-98.7 -98.8,-98.7" />
    </clipPath>
    <clipPath
       id="clipPath128-4"
       clipPathUnits="userSpaceOnUse">
      <path
         inkscape:connector-curvature="0"
         id="path126-8"
         d="m 10619.5,43077 c -63,0 -114.2,51.1 -114.2,114.2 0,63.1 51.2,114.2 114.2,114.2 63.1,0 114.2,-51.1 114.2,-114.2 0,-63.1 -51.1,-114.2 -114.2,-114.2" />
    </clipPath>
    <clipPath
       id="clipPath148-1"
       clipPathUnits="userSpaceOnUse">
      <path
         inkscape:connector-curvature="0"
         id="path146-0"
         d="m 12252.3,41830.1 c -54.6,0 -98.8,44.2 -98.8,98.8 0,54.5 44.2,98.7 98.8,98.7 54.5,0 98.7,-44.2 98.7,-98.7 0,-54.6 -44.2,-98.8 -98.7,-98.8" />
    </clipPath>
    <clipPath
       id="clipPath172-3"
       clipPathUnits="userSpaceOnUse">
      <path
         inkscape:connector-curvature="0"
         id="path170-0"
         d="m 11702.9,40373.3 c -52.9,0 -95.7,42.8 -95.7,95.7 0,52.8 42.8,95.6 95.7,95.6 52.8,0 95.7,-42.8 95.7,-95.6 0,-52.9 -42.9,-95.7 -95.7,-95.7" />
    </clipPath>
    <clipPath
       id="clipPath216-4"
       clipPathUnits="userSpaceOnUse">
      <path
         inkscape:connector-curvature="0"
         id="path214-4"
         d="m 16449.8,42351.7 c -61.4,0 -111.1,49.7 -111.1,111.1 0,61.4 49.7,111.1 111.1,111.1 61.4,0 111.1,-49.7 111.1,-111.1 0,-61.4 -49.7,-111.1 -111.1,-111.1" />
    </clipPath>
    <clipPath
       id="clipPath240-4"
       clipPathUnits="userSpaceOnUse">
      <path
         inkscape:connector-curvature="0"
         id="path238-4"
         d="m 21912.8,43589.4 c -58,0 -105,46.9 -105,104.9 0,57.9 47,104.9 105,104.9 57.9,0 104.9,-47 104.9,-104.9 0,-58 -47,-104.9 -104.9,-104.9" />
    </clipPath>
    <clipPath
       id="clipPath268-7"
       clipPathUnits="userSpaceOnUse">
      <path
         inkscape:connector-curvature="0"
         id="path266-6"
         d="m 26836.7,47269.4 c -55.7,0 -100.9,45.2 -100.9,100.8 0,55.7 45.2,100.8 100.9,100.8 55.6,0 100.8,-45.1 100.8,-100.8 0,-55.6 -45.2,-100.8 -100.8,-100.8" />
    </clipPath>
    <clipPath
       id="clipPath288-3"
       clipPathUnits="userSpaceOnUse">
      <path
         inkscape:connector-curvature="0"
         id="path286-1"
         d="m 26110.3,44743.7 c -63,0 -114.2,51.1 -114.2,114.2 0,63 51.2,114.2 114.2,114.2 63.1,0 114.2,-51.2 114.2,-114.2 0,-63.1 -51.1,-114.2 -114.2,-114.2" />
    </clipPath>
    <clipPath
       id="clipPath308-7"
       clipPathUnits="userSpaceOnUse">
      <path
         inkscape:connector-curvature="0"
         id="path306-5"
         d="m 24517.7,41516.8 c -57.9,0 -104.9,47 -104.9,105 0,57.9 47,104.9 104.9,104.9 58,0 105,-47 105,-104.9 0,-58 -47,-105 -105,-105" />
    </clipPath>
    <clipPath
       id="clipPath328-9"
       clipPathUnits="userSpaceOnUse">
      <path
         inkscape:connector-curvature="0"
         id="path326-6"
         d="m 23165.9,41825.4 c -54.6,0 -98.8,44.3 -98.8,98.8 0,54.6 44.2,98.8 98.8,98.8 54.5,0 98.7,-44.2 98.7,-98.8 0,-54.5 -44.2,-98.8 -98.7,-98.8" />
    </clipPath>
    <clipPath
       id="clipPath352-2"
       clipPathUnits="userSpaceOnUse">
      <path
         inkscape:connector-curvature="0"
         id="path350-1"
         d="m 19104.1,37521.4 c -66.5,0 -120.3,53.9 -120.3,120.4 0,66.5 53.8,120.4 120.3,120.4 66.5,0 120.4,-53.9 120.4,-120.4 0,-66.5 -53.9,-120.4 -120.4,-120.4" />
    </clipPath>
    <clipPath
       id="clipPath380-7"
       clipPathUnits="userSpaceOnUse">
      <path
         inkscape:connector-curvature="0"
         id="path378-8"
         d="m 23863.4,37240.6 c -64.8,0 -117.3,52.5 -117.3,117.2 0,64.8 52.5,117.3 117.3,117.3 64.8,0 117.3,-52.5 117.3,-117.3 0,-64.7 -52.5,-117.2 -117.3,-117.2" />
    </clipPath>
    <clipPath
       id="clipPath412-5"
       clipPathUnits="userSpaceOnUse">
      <path
         inkscape:connector-curvature="0"
         id="path410-7"
         d="m 15663.8,34820.8 c -46.6,0 -84.4,37.8 -84.4,84.4 0,46.6 37.8,84.3 84.4,84.3 46.6,0 84.3,-37.7 84.3,-84.3 0,-46.6 -37.7,-84.4 -84.3,-84.4" />
    </clipPath>
    <clipPath
       id="clipPath452-4"
       clipPathUnits="userSpaceOnUse">
      <path
         inkscape:connector-curvature="0"
         id="path450-1"
         d="m 16618.5,29028.6 c -64.7,0 -117.3,52.5 -117.3,117.3 0,64.8 52.6,117.3 117.3,117.3 64.8,0 117.3,-52.5 117.3,-117.3 0,-64.8 -52.5,-117.3 -117.3,-117.3" />
    </clipPath>
    <clipPath
       id="clipPath472-8"
       clipPathUnits="userSpaceOnUse">
      <path
         inkscape:connector-curvature="0"
         id="path470-5"
         d="m 19836.6,31724.1 c -55.6,0 -100.8,45.1 -100.8,100.8 0,55.7 45.2,100.8 100.8,100.8 55.7,0 100.9,-45.1 100.9,-100.8 0,-55.7 -45.2,-100.8 -100.9,-100.8" />
    </clipPath>
    <clipPath
       id="clipPath492-9"
       clipPathUnits="userSpaceOnUse">
      <path
         inkscape:connector-curvature="0"
         id="path490-7"
         d="m 21326.4,32740.6 c -46.6,0 -84.4,37.7 -84.4,84.3 0,46.6 37.8,84.4 84.4,84.4 46.6,0 84.3,-37.8 84.3,-84.4 0,-46.6 -37.7,-84.3 -84.3,-84.3" />
    </clipPath>
    <clipPath
       id="clipPath560-5"
       clipPathUnits="userSpaceOnUse">
      <path
         inkscape:connector-curvature="0"
         id="path558-3"
         d="m 25301.7,31123.3 c -50,0 -90.6,40.5 -90.6,90.5 0,50 40.6,90.5 90.6,90.5 50,0 90.5,-40.5 90.5,-90.5 0,-50 -40.5,-90.5 -90.5,-90.5" />
    </clipPath>
    <clipPath
       id="clipPath600-8"
       clipPathUnits="userSpaceOnUse">
      <path
         inkscape:connector-curvature="0"
         id="path598-8"
         d="m 32899.2,25484.3 c -66.5,0 -120.4,53.9 -120.4,120.4 0,66.5 53.9,120.4 120.4,120.4 66.5,0 120.4,-53.9 120.4,-120.4 0,-66.5 -53.9,-120.4 -120.4,-120.4" />
    </clipPath>
    <clipPath
       id="clipPath628-3"
       clipPathUnits="userSpaceOnUse">
      <path
         inkscape:connector-curvature="0"
         id="path626-1"
         d="m 41443.7,32983.3 c -50,0 -90.5,40.6 -90.5,90.6 0,50 40.5,90.5 90.5,90.5 50,0 90.5,-40.5 90.5,-90.5 0,-50 -40.5,-90.6 -90.5,-90.6" />
    </clipPath>
    <clipPath
       id="clipPath648-8"
       clipPathUnits="userSpaceOnUse">
      <path
         inkscape:connector-curvature="0"
         id="path646-9"
         d="m 33392.2,34283.8 c -65.9,0 -119.3,53.4 -119.3,119.3 0,65.9 53.4,119.3 119.3,119.3 66,0 119.4,-53.4 119.4,-119.3 0,-65.9 -53.4,-119.3 -119.4,-119.3" />
    </clipPath>
    <clipPath
       id="clipPath668-6"
       clipPathUnits="userSpaceOnUse">
      <path
         inkscape:connector-curvature="0"
         id="path666-4"
         d="m 30418,30544.8 c -66,0 -119.4,53.4 -119.4,119.3 0,66 53.4,119.4 119.4,119.4 65.9,0 119.3,-53.4 119.3,-119.4 0,-65.9 -53.4,-119.3 -119.3,-119.3" />
    </clipPath>
    <clipPath
       id="clipPath712-3"
       clipPathUnits="userSpaceOnUse">
      <path
         inkscape:connector-curvature="0"
         id="path710-3"
         d="m 33618.6,37411.4 c -50,0 -90.6,40.5 -90.6,90.5 0,50 40.6,90.5 90.6,90.5 50,0 90.5,-40.5 90.5,-90.5 0,-50 -40.5,-90.5 -90.5,-90.5" />
    </clipPath>
    <clipPath
       id="clipPath732-3"
       clipPathUnits="userSpaceOnUse">
      <path
         inkscape:connector-curvature="0"
         id="path730-8"
         d="m 28947.8,38789.9 c -54.6,0 -98.8,44.3 -98.8,98.8 0,54.6 44.2,98.8 98.8,98.8 54.5,0 98.7,-44.2 98.7,-98.8 0,-54.5 -44.2,-98.8 -98.7,-98.8" />
    </clipPath>
    <clipPath
       id="clipPath772-6"
       clipPathUnits="userSpaceOnUse">
      <path
         inkscape:connector-curvature="0"
         id="path770-0"
         d="m 30199.8,42333.2 c -54.5,0 -98.7,44.2 -98.7,98.7 0,54.6 44.2,98.8 98.7,98.8 54.6,0 98.8,-44.2 98.8,-98.8 0,-54.5 -44.2,-98.7 -98.8,-98.7" />
    </clipPath>
    <clipPath
       id="clipPath796-4"
       clipPathUnits="userSpaceOnUse">
      <path
         inkscape:connector-curvature="0"
         id="path794-8"
         d="m 28186.5,46203.6 c -52.3,0 -94.7,42.3 -94.7,94.6 0,52.3 42.4,94.7 94.7,94.7 52.2,0 94.6,-42.4 94.6,-94.7 0,-52.3 -42.4,-94.6 -94.6,-94.6" />
    </clipPath>
    <clipPath
       id="clipPath824-8"
       clipPathUnits="userSpaceOnUse">
      <path
         inkscape:connector-curvature="0"
         id="path822-8"
         d="m 19224.5,47816.7 c -55.7,0 -100.8,45.2 -100.8,100.9 0,55.6 45.1,100.8 100.8,100.8 55.7,0 100.8,-45.2 100.8,-100.8 0,-55.7 -45.1,-100.9 -100.8,-100.9" />
    </clipPath>
    <clipPath
       id="clipPath844-9"
       clipPathUnits="userSpaceOnUse">
      <path
         inkscape:connector-curvature="0"
         id="path842-7"
         d="m 1145.73,31305.5 c -52.27,0 -94.64,42.3 -94.64,94.6 0,52.3 42.37,94.7 94.64,94.7 52.28,0 94.65,-42.4 94.65,-94.7 0,-52.3 -42.37,-94.6 -94.65,-94.6" />
    </clipPath>
    <clipPath
       id="clipPath876-7"
       clipPathUnits="userSpaceOnUse">
      <path
         inkscape:connector-curvature="0"
         id="path874-6"
         d="m 38087.2,47482.9 c -41.7,0 -75.6,33.8 -75.6,75.6 0,41.8 33.9,75.6 75.6,75.6 41.8,0 75.6,-33.8 75.6,-75.6 0,-41.8 -33.8,-75.6 -75.6,-75.6" />
    </clipPath>
    <clipPath
       id="clipPath900-4"
       clipPathUnits="userSpaceOnUse">
      <path
         inkscape:connector-curvature="0"
         id="path898-3"
         d="m 40886.6,46285.4 c -55.4,0 -100.3,44.9 -100.3,100.3 0,55.4 44.9,100.3 100.3,100.3 55.4,0 100.3,-44.9 100.3,-100.3 0,-55.4 -44.9,-100.3 -100.3,-100.3" />
    </clipPath>
    <clipPath
       id="clipPath928-0"
       clipPathUnits="userSpaceOnUse">
      <path
         inkscape:connector-curvature="0"
         id="path926-3"
         d="m 44094.9,44948.9 c -46.8,0 -84.8,38 -84.8,84.9 0,46.9 38,84.9 84.8,84.9 46.9,0 84.9,-38 84.9,-84.9 0,-46.9 -38,-84.9 -84.9,-84.9" />
    </clipPath>
    <clipPath
       id="clipPath948-0"
       clipPathUnits="userSpaceOnUse">
      <path
         inkscape:connector-curvature="0"
         id="path946-9"
         d="m 45378.9,46650.1 c -46.6,0 -84.4,37.7 -84.4,84.3 0,46.6 37.8,84.4 84.4,84.4 46.6,0 84.4,-37.8 84.4,-84.4 0,-46.6 -37.8,-84.3 -84.4,-84.3" />
    </clipPath>
    <clipPath
       id="clipPath968-2"
       clipPathUnits="userSpaceOnUse">
      <path
         inkscape:connector-curvature="0"
         id="path966-5"
         d="m 44792.5,47114.1 c -66.5,0 -120.4,53.8 -120.4,120.3 0,66.5 53.9,120.4 120.4,120.4 66.5,0 120.4,-53.9 120.4,-120.4 0,-66.5 -53.9,-120.3 -120.4,-120.3" />
    </clipPath>
    <clipPath
       id="clipPath996-4"
       clipPathUnits="userSpaceOnUse">
      <path
         inkscape:connector-curvature="0"
         id="path994-3-0"
         d="m 49551.8,46533.8 c -61.4,0 -111.2,49.8 -111.2,111.1 0,61.4 49.8,111.1 111.2,111.1 61.3,0 111.1,-49.7 111.1,-111.1 0,-61.3 -49.8,-111.1 -111.1,-111.1" />
    </clipPath>
    <clipPath
       id="clipPath1016-5"
       clipPathUnits="userSpaceOnUse">
      <path
         inkscape:connector-curvature="0"
         id="path1014-9-9"
         d="m 49820.3,45200.5 c -73.3,0 -132.7,59.4 -132.7,132.7 0,73.3 59.4,132.7 132.7,132.7 73.3,0 132.7,-59.4 132.7,-132.7 0,-73.3 -59.4,-132.7 -132.7,-132.7" />
    </clipPath>
    <clipPath
       id="clipPath1036-4"
       clipPathUnits="userSpaceOnUse">
      <path
         inkscape:connector-curvature="0"
         id="path1034-6"
         d="m 48045.6,41265.3 c -68.2,0 -123.5,55.2 -123.5,123.4 0,68.2 55.3,123.5 123.5,123.5 68.2,0 123.4,-55.3 123.4,-123.5 0,-68.2 -55.2,-123.4 -123.4,-123.4" />
    </clipPath>
    <clipPath
       id="clipPath1056-9"
       clipPathUnits="userSpaceOnUse">
      <path
         inkscape:connector-curvature="0"
         id="path1054-2"
         d="m 46161.8,39396.9 c -51.1,0 -92.6,41.5 -92.6,92.6 0,51.2 41.5,92.6 92.6,92.6 51.2,0 92.6,-41.4 92.6,-92.6 0,-51.1 -41.4,-92.6 -92.6,-92.6" />
    </clipPath>
    <clipPath
       id="clipPath1076-2"
       clipPathUnits="userSpaceOnUse">
      <path
         inkscape:connector-curvature="0"
         id="path1074-4"
         d="m 4663.93,34585.2 c -46.6,0 -84.37,37.8 -84.37,84.4 0,46.6 37.77,84.3 84.37,84.3 46.58,0 84.35,-37.7 84.35,-84.3 0,-46.6 -37.77,-84.4 -84.35,-84.4" />
    </clipPath>
    <clipPath
       id="clipPath1100-7"
       clipPathUnits="userSpaceOnUse">
      <path
         inkscape:connector-curvature="0"
         id="path1098-7"
         d="m 4178.32,24700.5 c -61.36,0 -111.1,49.7 -111.1,111.1 0,61.4 49.74,111.1 111.1,111.1 61.37,0 111.11,-49.7 111.11,-111.1 0,-61.4 -49.74,-111.1 -111.11,-111.1" />
    </clipPath>
    <clipPath
       id="clipPath1160-5"
       clipPathUnits="userSpaceOnUse">
      <path
         inkscape:connector-curvature="0"
         id="path1158-4"
         d="m 7645.75,25871.8 c -73.3,0 -132.72,59.4 -132.72,132.7 0,73.3 59.42,132.7 132.72,132.7 73.29,0 132.71,-59.4 132.71,-132.7 0,-73.3 -59.42,-132.7 -132.71,-132.7" />
    </clipPath>
    <clipPath
       id="clipPath1192-8"
       clipPathUnits="userSpaceOnUse">
      <path
         inkscape:connector-curvature="0"
         id="path1190-1"
         d="m 40198.8,38584.2 c -68.1,0 -123.4,55.3 -123.4,123.4 0,68.2 55.3,123.5 123.4,123.5 68.2,0 123.5,-55.3 123.5,-123.5 0,-68.1 -55.3,-123.4 -123.5,-123.4" />
    </clipPath>
    <clipPath
       id="clipPath1216-2"
       clipPathUnits="userSpaceOnUse">
      <path
         inkscape:connector-curvature="0"
         id="path1214-8"
         d="m 37569.2,41078 c -59.1,0 -107,47.9 -107,107 0,59.1 47.9,107 107,107 59.1,0 107,-47.9 107,-107 0,-59.1 -47.9,-107 -107,-107" />
    </clipPath>
    <clipPath
       id="clipPath1236-9"
       clipPathUnits="userSpaceOnUse">
      <path
         inkscape:connector-curvature="0"
         id="path1234-3"
         d="m 35635,41892.8 c -63.6,0 -115.2,51.6 -115.2,115.3 0,63.6 51.6,115.2 115.2,115.2 63.7,0 115.3,-51.6 115.3,-115.2 0,-63.7 -51.6,-115.3 -115.3,-115.3" />
    </clipPath>
    <clipPath
       id="clipPath1256-6"
       clipPathUnits="userSpaceOnUse">
      <path
         inkscape:connector-curvature="0"
         id="path1254-8"
         d="m 40556.9,24829 c -63.7,0 -115.2,51.6 -115.2,115.2 0,63.7 51.5,115.2 115.2,115.2 63.6,0 115.2,-51.5 115.2,-115.2 0,-63.6 -51.6,-115.2 -115.2,-115.2" />
    </clipPath>
    <clipPath
       id="clipPath1288-0"
       clipPathUnits="userSpaceOnUse">
      <path
         inkscape:connector-curvature="0"
         id="path1286-2"
         d="m 43445.3,31419.5 c -52,0 -94.2,42.2 -94.2,94.2 0,52 42.2,94.1 94.2,94.1 51.9,0 94.1,-42.1 94.1,-94.1 0,-52 -42.2,-94.2 -94.1,-94.2" />
    </clipPath>
    <clipPath
       id="clipPath1308-1"
       clipPathUnits="userSpaceOnUse">
      <path
         inkscape:connector-curvature="0"
         id="path1306-0"
         d="m 44645.9,31674.2 c -57.1,0 -103.4,46.3 -103.4,103.4 0,57.1 46.3,103.4 103.4,103.4 57.1,0 103.4,-46.3 103.4,-103.4 0,-57.1 -46.3,-103.4 -103.4,-103.4" />
    </clipPath>
    <clipPath
       id="clipPath1336-5"
       clipPathUnits="userSpaceOnUse">
      <path
         inkscape:connector-curvature="0"
         id="path1334-1"
         d="m 49118.6,36536.9 c -63.6,0 -115.2,51.5 -115.2,115.2 0,63.6 51.6,115.2 115.2,115.2 63.7,0 115.3,-51.6 115.3,-115.2 0,-63.7 -51.6,-115.2 -115.3,-115.2" />
    </clipPath>
    <clipPath
       id="clipPath1360-1"
       clipPathUnits="userSpaceOnUse">
      <path
         inkscape:connector-curvature="0"
         id="path1358-0"
         d="m 47151.5,36785.8 c -65.9,0 -119.3,53.5 -119.3,119.4 0,65.9 53.4,119.3 119.3,119.3 66,0 119.4,-53.4 119.4,-119.3 0,-65.9 -53.4,-119.4 -119.4,-119.4" />
    </clipPath>
    <clipPath
       id="clipPath1384-8"
       clipPathUnits="userSpaceOnUse">
      <path
         inkscape:connector-curvature="0"
         id="path1382-5"
         d="m 1462.93,43804.9 c -61.35,0 -111.11,49.7 -111.11,111.1 0,61.4 49.76,111.1 111.11,111.1 61.37,0 111.12,-49.7 111.12,-111.1 0,-61.4 -49.75,-111.1 -111.12,-111.1" />
    </clipPath>
    <clipPath
       id="clipPath1404-0"
       clipPathUnits="userSpaceOnUse">
      <path
         inkscape:connector-curvature="0"
         id="path1402-6"
         d="m 6630.36,43014.9 c -61.36,0 -111.12,49.7 -111.12,111.1 0,61.4 49.76,111.1 111.12,111.1 61.37,0 111.11,-49.7 111.11,-111.1 0,-61.4 -49.74,-111.1 -111.11,-111.1" />
    </clipPath>
    <clipPath
       id="clipPath1424-4"
       clipPathUnits="userSpaceOnUse">
      <path
         inkscape:connector-curvature="0"
         id="path1422-6"
         d="m 1731.46,42471.6 c -73.3,0 -132.72,59.4 -132.72,132.7 0,73.3 59.42,132.7 132.72,132.7 73.3,0 132.72,-59.4 132.72,-132.7 0,-73.3 -59.42,-132.7 -132.72,-132.7" />
    </clipPath>
    <clipPath
       id="clipPath1444-2"
       clipPathUnits="userSpaceOnUse">
      <path
         inkscape:connector-curvature="0"
         id="path1442-5"
         d="m 4930.36,44976.2 c -73.3,0 -132.72,59.4 -132.72,132.7 0,73.3 59.42,132.7 132.72,132.7 73.29,0 132.72,-59.4 132.72,-132.7 0,-73.3 -59.43,-132.7 -132.72,-132.7" />
    </clipPath>
    <clipPath
       id="clipPath1472-8"
       clipPathUnits="userSpaceOnUse">
      <path
         inkscape:connector-curvature="0"
         id="path1470-6"
         d="m 1731.46,38412.9 c -68.19,0 -123.45,55.3 -123.45,123.5 0,68.1 55.26,123.4 123.45,123.4 68.18,0 123.46,-55.3 123.46,-123.4 0,-68.2 -55.28,-123.5 -123.46,-123.5" />
    </clipPath>
    <clipPath
       id="clipPath1492-2"
       clipPathUnits="userSpaceOnUse">
      <path
         inkscape:connector-curvature="0"
         id="path1490-8"
         d="m 6287.11,36544.6 c -68.18,0 -123.45,55.2 -123.45,123.4 0,68.2 55.27,123.5 123.45,123.5 68.18,0 123.46,-55.3 123.46,-123.5 0,-68.2 -55.28,-123.4 -123.46,-123.4" />
    </clipPath>
    <clipPath
       id="clipPath1516-4"
       clipPathUnits="userSpaceOnUse">
      <path
         inkscape:connector-curvature="0"
         id="path1514-7"
         d="m 1029.81,33807.9 c -63.638,0 -115.232,51.6 -115.232,115.3 0,63.6 51.594,115.2 115.232,115.2 63.64,0 115.23,-51.6 115.23,-115.2 0,-63.7 -51.59,-115.3 -115.23,-115.3" />
    </clipPath>
    <clipPath
       id="clipPath1544-2"
       clipPathUnits="userSpaceOnUse">
      <path
         inkscape:connector-curvature="0"
         id="path1542-4"
         d="m 36400.5,35469 c -75,0 -135.8,60.7 -135.8,135.8 0,75 60.8,135.8 135.8,135.8 75,0 135.8,-60.8 135.8,-135.8 0,-75.1 -60.8,-135.8 -135.8,-135.8" />
    </clipPath>
    <clipPath
       id="clipPath47742"
       clipPathUnits="userSpaceOnUse">
      <path
         inkscape:connector-curvature="0"
         id="path47740"
         d="m 7791.33,45662.4 c -72.72,0 -131.69,59 -131.69,131.7 0,72.7 58.97,131.7 131.69,131.7 72.74,0 131.69,-59 131.69,-131.7 0,-72.7 -58.95,-131.7 -131.69,-131.7" />
    </clipPath>
    <clipPath
       id="clipPath47746"
       clipPathUnits="userSpaceOnUse">
      <path
         inkscape:connector-curvature="0"
         id="path47744"
         d="m 3437.41,48436.1 c -54.55,0 -98.77,44.2 -98.77,98.7 0,54.6 44.22,98.8 98.77,98.8 54.55,0 98.76,-44.2 98.76,-98.8 0,-54.5 -44.21,-98.7 -98.76,-98.7" />
    </clipPath>
    <clipPath
       id="clipPath47750"
       clipPathUnits="userSpaceOnUse">
      <path
         inkscape:connector-curvature="0"
         id="path47748"
         d="m 12923,47917.6 c -54.5,0 -98.7,44.2 -98.7,98.7 0,54.6 44.2,98.8 98.7,98.8 54.6,0 98.8,-44.2 98.8,-98.8 0,-54.5 -44.2,-98.7 -98.8,-98.7" />
    </clipPath>
    <clipPath
       id="clipPath47754"
       clipPathUnits="userSpaceOnUse">
      <path
         inkscape:connector-curvature="0"
         id="path47752"
         d="m 10619.5,43077 c -63,0 -114.2,51.1 -114.2,114.2 0,63.1 51.2,114.2 114.2,114.2 63.1,0 114.2,-51.1 114.2,-114.2 0,-63.1 -51.1,-114.2 -114.2,-114.2" />
    </clipPath>
    <clipPath
       id="clipPath47758"
       clipPathUnits="userSpaceOnUse">
      <path
         inkscape:connector-curvature="0"
         id="path47756"
         d="m 12252.3,41830.1 c -54.6,0 -98.8,44.2 -98.8,98.8 0,54.5 44.2,98.7 98.8,98.7 54.5,0 98.7,-44.2 98.7,-98.7 0,-54.6 -44.2,-98.8 -98.7,-98.8" />
    </clipPath>
    <clipPath
       id="clipPath47762"
       clipPathUnits="userSpaceOnUse">
      <path
         inkscape:connector-curvature="0"
         id="path47760"
         d="m 11702.9,40373.3 c -52.9,0 -95.7,42.8 -95.7,95.7 0,52.8 42.8,95.6 95.7,95.6 52.8,0 95.7,-42.8 95.7,-95.6 0,-52.9 -42.9,-95.7 -95.7,-95.7" />
    </clipPath>
    <clipPath
       id="clipPath47766"
       clipPathUnits="userSpaceOnUse">
      <path
         inkscape:connector-curvature="0"
         id="path47764"
         d="m 16449.8,42351.7 c -61.4,0 -111.1,49.7 -111.1,111.1 0,61.4 49.7,111.1 111.1,111.1 61.4,0 111.1,-49.7 111.1,-111.1 0,-61.4 -49.7,-111.1 -111.1,-111.1" />
    </clipPath>
    <clipPath
       id="clipPath47770"
       clipPathUnits="userSpaceOnUse">
      <path
         inkscape:connector-curvature="0"
         id="path47768"
         d="m 21912.8,43589.4 c -58,0 -105,46.9 -105,104.9 0,57.9 47,104.9 105,104.9 57.9,0 104.9,-47 104.9,-104.9 0,-58 -47,-104.9 -104.9,-104.9" />
    </clipPath>
    <clipPath
       id="clipPath47774"
       clipPathUnits="userSpaceOnUse">
      <path
         inkscape:connector-curvature="0"
         id="path47772"
         d="m 26836.7,47269.4 c -55.7,0 -100.9,45.2 -100.9,100.8 0,55.7 45.2,100.8 100.9,100.8 55.6,0 100.8,-45.1 100.8,-100.8 0,-55.6 -45.2,-100.8 -100.8,-100.8" />
    </clipPath>
    <clipPath
       id="clipPath47778"
       clipPathUnits="userSpaceOnUse">
      <path
         inkscape:connector-curvature="0"
         id="path47776"
         d="m 26110.3,44743.7 c -63,0 -114.2,51.1 -114.2,114.2 0,63 51.2,114.2 114.2,114.2 63.1,0 114.2,-51.2 114.2,-114.2 0,-63.1 -51.1,-114.2 -114.2,-114.2" />
    </clipPath>
    <clipPath
       id="clipPath47782"
       clipPathUnits="userSpaceOnUse">
      <path
         inkscape:connector-curvature="0"
         id="path47780"
         d="m 24517.7,41516.8 c -57.9,0 -104.9,47 -104.9,105 0,57.9 47,104.9 104.9,104.9 58,0 105,-47 105,-104.9 0,-58 -47,-105 -105,-105" />
    </clipPath>
    <clipPath
       id="clipPath47786"
       clipPathUnits="userSpaceOnUse">
      <path
         inkscape:connector-curvature="0"
         id="path47784"
         d="m 23165.9,41825.4 c -54.6,0 -98.8,44.3 -98.8,98.8 0,54.6 44.2,98.8 98.8,98.8 54.5,0 98.7,-44.2 98.7,-98.8 0,-54.5 -44.2,-98.8 -98.7,-98.8" />
    </clipPath>
    <clipPath
       id="clipPath47790"
       clipPathUnits="userSpaceOnUse">
      <path
         inkscape:connector-curvature="0"
         id="path47788"
         d="m 19104.1,37521.4 c -66.5,0 -120.3,53.9 -120.3,120.4 0,66.5 53.8,120.4 120.3,120.4 66.5,0 120.4,-53.9 120.4,-120.4 0,-66.5 -53.9,-120.4 -120.4,-120.4" />
    </clipPath>
    <clipPath
       id="clipPath47794"
       clipPathUnits="userSpaceOnUse">
      <path
         inkscape:connector-curvature="0"
         id="path47792"
         d="m 23863.4,37240.6 c -64.8,0 -117.3,52.5 -117.3,117.2 0,64.8 52.5,117.3 117.3,117.3 64.8,0 117.3,-52.5 117.3,-117.3 0,-64.7 -52.5,-117.2 -117.3,-117.2" />
    </clipPath>
    <clipPath
       id="clipPath47798"
       clipPathUnits="userSpaceOnUse">
      <path
         inkscape:connector-curvature="0"
         id="path47796"
         d="m 15663.8,34820.8 c -46.6,0 -84.4,37.8 -84.4,84.4 0,46.6 37.8,84.3 84.4,84.3 46.6,0 84.3,-37.7 84.3,-84.3 0,-46.6 -37.7,-84.4 -84.3,-84.4" />
    </clipPath>
    <clipPath
       id="clipPath47802"
       clipPathUnits="userSpaceOnUse">
      <path
         inkscape:connector-curvature="0"
         id="path47800"
         d="m 16618.5,29028.6 c -64.7,0 -117.3,52.5 -117.3,117.3 0,64.8 52.6,117.3 117.3,117.3 64.8,0 117.3,-52.5 117.3,-117.3 0,-64.8 -52.5,-117.3 -117.3,-117.3" />
    </clipPath>
    <clipPath
       id="clipPath47806"
       clipPathUnits="userSpaceOnUse">
      <path
         inkscape:connector-curvature="0"
         id="path47804"
         d="m 19836.6,31724.1 c -55.6,0 -100.8,45.1 -100.8,100.8 0,55.7 45.2,100.8 100.8,100.8 55.7,0 100.9,-45.1 100.9,-100.8 0,-55.7 -45.2,-100.8 -100.9,-100.8" />
    </clipPath>
    <clipPath
       id="clipPath47810"
       clipPathUnits="userSpaceOnUse">
      <path
         inkscape:connector-curvature="0"
         id="path47808"
         d="m 21326.4,32740.6 c -46.6,0 -84.4,37.7 -84.4,84.3 0,46.6 37.8,84.4 84.4,84.4 46.6,0 84.3,-37.8 84.3,-84.4 0,-46.6 -37.7,-84.3 -84.3,-84.3" />
    </clipPath>
    <clipPath
       id="clipPath47814"
       clipPathUnits="userSpaceOnUse">
      <path
         inkscape:connector-curvature="0"
         id="path47812"
         d="m 25301.7,31123.3 c -50,0 -90.6,40.5 -90.6,90.5 0,50 40.6,90.5 90.6,90.5 50,0 90.5,-40.5 90.5,-90.5 0,-50 -40.5,-90.5 -90.5,-90.5" />
    </clipPath>
    <clipPath
       id="clipPath47818"
       clipPathUnits="userSpaceOnUse">
      <path
         inkscape:connector-curvature="0"
         id="path47816"
         d="m 32899.2,25484.3 c -66.5,0 -120.4,53.9 -120.4,120.4 0,66.5 53.9,120.4 120.4,120.4 66.5,0 120.4,-53.9 120.4,-120.4 0,-66.5 -53.9,-120.4 -120.4,-120.4" />
    </clipPath>
    <clipPath
       id="clipPath47822"
       clipPathUnits="userSpaceOnUse">
      <path
         inkscape:connector-curvature="0"
         id="path47820"
         d="m 41443.7,32983.3 c -50,0 -90.5,40.6 -90.5,90.6 0,50 40.5,90.5 90.5,90.5 50,0 90.5,-40.5 90.5,-90.5 0,-50 -40.5,-90.6 -90.5,-90.6" />
    </clipPath>
    <clipPath
       id="clipPath47826"
       clipPathUnits="userSpaceOnUse">
      <path
         inkscape:connector-curvature="0"
         id="path47824"
         d="m 33392.2,34283.8 c -65.9,0 -119.3,53.4 -119.3,119.3 0,65.9 53.4,119.3 119.3,119.3 66,0 119.4,-53.4 119.4,-119.3 0,-65.9 -53.4,-119.3 -119.4,-119.3" />
    </clipPath>
    <clipPath
       id="clipPath47830"
       clipPathUnits="userSpaceOnUse">
      <path
         inkscape:connector-curvature="0"
         id="path47828"
         d="m 30418,30544.8 c -66,0 -119.4,53.4 -119.4,119.3 0,66 53.4,119.4 119.4,119.4 65.9,0 119.3,-53.4 119.3,-119.4 0,-65.9 -53.4,-119.3 -119.3,-119.3" />
    </clipPath>
    <clipPath
       id="clipPath47834"
       clipPathUnits="userSpaceOnUse">
      <path
         inkscape:connector-curvature="0"
         id="path47832"
         d="m 33618.6,37411.4 c -50,0 -90.6,40.5 -90.6,90.5 0,50 40.6,90.5 90.6,90.5 50,0 90.5,-40.5 90.5,-90.5 0,-50 -40.5,-90.5 -90.5,-90.5" />
    </clipPath>
    <clipPath
       id="clipPath47838"
       clipPathUnits="userSpaceOnUse">
      <path
         inkscape:connector-curvature="0"
         id="path47836"
         d="m 28947.8,38789.9 c -54.6,0 -98.8,44.3 -98.8,98.8 0,54.6 44.2,98.8 98.8,98.8 54.5,0 98.7,-44.2 98.7,-98.8 0,-54.5 -44.2,-98.8 -98.7,-98.8" />
    </clipPath>
    <clipPath
       id="clipPath47842"
       clipPathUnits="userSpaceOnUse">
      <path
         inkscape:connector-curvature="0"
         id="path47840"
         d="m 30199.8,42333.2 c -54.5,0 -98.7,44.2 -98.7,98.7 0,54.6 44.2,98.8 98.7,98.8 54.6,0 98.8,-44.2 98.8,-98.8 0,-54.5 -44.2,-98.7 -98.8,-98.7" />
    </clipPath>
    <clipPath
       id="clipPath47846"
       clipPathUnits="userSpaceOnUse">
      <path
         inkscape:connector-curvature="0"
         id="path47844"
         d="m 28186.5,46203.6 c -52.3,0 -94.7,42.3 -94.7,94.6 0,52.3 42.4,94.7 94.7,94.7 52.2,0 94.6,-42.4 94.6,-94.7 0,-52.3 -42.4,-94.6 -94.6,-94.6" />
    </clipPath>
    <clipPath
       id="clipPath47850"
       clipPathUnits="userSpaceOnUse">
      <path
         inkscape:connector-curvature="0"
         id="path47848"
         d="m 19224.5,47816.7 c -55.7,0 -100.8,45.2 -100.8,100.9 0,55.6 45.1,100.8 100.8,100.8 55.7,0 100.8,-45.2 100.8,-100.8 0,-55.7 -45.1,-100.9 -100.8,-100.9" />
    </clipPath>
    <clipPath
       id="clipPath47854"
       clipPathUnits="userSpaceOnUse">
      <path
         inkscape:connector-curvature="0"
         id="path47852"
         d="m 1145.73,31305.5 c -52.27,0 -94.64,42.3 -94.64,94.6 0,52.3 42.37,94.7 94.64,94.7 52.28,0 94.65,-42.4 94.65,-94.7 0,-52.3 -42.37,-94.6 -94.65,-94.6" />
    </clipPath>
    <clipPath
       id="clipPath47858"
       clipPathUnits="userSpaceOnUse">
      <path
         inkscape:connector-curvature="0"
         id="path47856"
         d="m 38087.2,47482.9 c -41.7,0 -75.6,33.8 -75.6,75.6 0,41.8 33.9,75.6 75.6,75.6 41.8,0 75.6,-33.8 75.6,-75.6 0,-41.8 -33.8,-75.6 -75.6,-75.6" />
    </clipPath>
    <clipPath
       id="clipPath47862"
       clipPathUnits="userSpaceOnUse">
      <path
         inkscape:connector-curvature="0"
         id="path47860"
         d="m 40886.6,46285.4 c -55.4,0 -100.3,44.9 -100.3,100.3 0,55.4 44.9,100.3 100.3,100.3 55.4,0 100.3,-44.9 100.3,-100.3 0,-55.4 -44.9,-100.3 -100.3,-100.3" />
    </clipPath>
    <clipPath
       id="clipPath47866"
       clipPathUnits="userSpaceOnUse">
      <path
         inkscape:connector-curvature="0"
         id="path47864"
         d="m 44094.9,44948.9 c -46.8,0 -84.8,38 -84.8,84.9 0,46.9 38,84.9 84.8,84.9 46.9,0 84.9,-38 84.9,-84.9 0,-46.9 -38,-84.9 -84.9,-84.9" />
    </clipPath>
    <clipPath
       id="clipPath47870"
       clipPathUnits="userSpaceOnUse">
      <path
         inkscape:connector-curvature="0"
         id="path47868"
         d="m 45378.9,46650.1 c -46.6,0 -84.4,37.7 -84.4,84.3 0,46.6 37.8,84.4 84.4,84.4 46.6,0 84.4,-37.8 84.4,-84.4 0,-46.6 -37.8,-84.3 -84.4,-84.3" />
    </clipPath>
    <clipPath
       id="clipPath47874"
       clipPathUnits="userSpaceOnUse">
      <path
         inkscape:connector-curvature="0"
         id="path47872"
         d="m 44792.5,47114.1 c -66.5,0 -120.4,53.8 -120.4,120.3 0,66.5 53.9,120.4 120.4,120.4 66.5,0 120.4,-53.9 120.4,-120.4 0,-66.5 -53.9,-120.3 -120.4,-120.3" />
    </clipPath>
    <clipPath
       id="clipPath47878"
       clipPathUnits="userSpaceOnUse">
      <path
         inkscape:connector-curvature="0"
         id="path47876"
         d="m 49551.8,46533.8 c -61.4,0 -111.2,49.8 -111.2,111.1 0,61.4 49.8,111.1 111.2,111.1 61.3,0 111.1,-49.7 111.1,-111.1 0,-61.3 -49.8,-111.1 -111.1,-111.1" />
    </clipPath>
    <clipPath
       id="clipPath47882"
       clipPathUnits="userSpaceOnUse">
      <path
         inkscape:connector-curvature="0"
         id="path47880"
         d="m 49820.3,45200.5 c -73.3,0 -132.7,59.4 -132.7,132.7 0,73.3 59.4,132.7 132.7,132.7 73.3,0 132.7,-59.4 132.7,-132.7 0,-73.3 -59.4,-132.7 -132.7,-132.7" />
    </clipPath>
    <clipPath
       id="clipPath47886"
       clipPathUnits="userSpaceOnUse">
      <path
         inkscape:connector-curvature="0"
         id="path47884"
         d="m 48045.6,41265.3 c -68.2,0 -123.5,55.2 -123.5,123.4 0,68.2 55.3,123.5 123.5,123.5 68.2,0 123.4,-55.3 123.4,-123.5 0,-68.2 -55.2,-123.4 -123.4,-123.4" />
    </clipPath>
    <clipPath
       id="clipPath47890"
       clipPathUnits="userSpaceOnUse">
      <path
         inkscape:connector-curvature="0"
         id="path47888"
         d="m 46161.8,39396.9 c -51.1,0 -92.6,41.5 -92.6,92.6 0,51.2 41.5,92.6 92.6,92.6 51.2,0 92.6,-41.4 92.6,-92.6 0,-51.1 -41.4,-92.6 -92.6,-92.6" />
    </clipPath>
    <clipPath
       id="clipPath47894"
       clipPathUnits="userSpaceOnUse">
      <path
         inkscape:connector-curvature="0"
         id="path47892"
         d="m 4663.93,34585.2 c -46.6,0 -84.37,37.8 -84.37,84.4 0,46.6 37.77,84.3 84.37,84.3 46.58,0 84.35,-37.7 84.35,-84.3 0,-46.6 -37.77,-84.4 -84.35,-84.4" />
    </clipPath>
    <clipPath
       id="clipPath47898"
       clipPathUnits="userSpaceOnUse">
      <path
         inkscape:connector-curvature="0"
         id="path47896"
         d="m 4178.32,24700.5 c -61.36,0 -111.1,49.7 -111.1,111.1 0,61.4 49.74,111.1 111.1,111.1 61.37,0 111.11,-49.7 111.11,-111.1 0,-61.4 -49.74,-111.1 -111.11,-111.1" />
    </clipPath>
    <clipPath
       id="clipPath47902"
       clipPathUnits="userSpaceOnUse">
      <path
         inkscape:connector-curvature="0"
         id="path47900"
         d="m 7645.75,25871.8 c -73.3,0 -132.72,59.4 -132.72,132.7 0,73.3 59.42,132.7 132.72,132.7 73.29,0 132.71,-59.4 132.71,-132.7 0,-73.3 -59.42,-132.7 -132.71,-132.7" />
    </clipPath>
    <clipPath
       id="clipPath47906"
       clipPathUnits="userSpaceOnUse">
      <path
         inkscape:connector-curvature="0"
         id="path47904"
         d="m 40198.8,38584.2 c -68.1,0 -123.4,55.3 -123.4,123.4 0,68.2 55.3,123.5 123.4,123.5 68.2,0 123.5,-55.3 123.5,-123.5 0,-68.1 -55.3,-123.4 -123.5,-123.4" />
    </clipPath>
    <clipPath
       id="clipPath47910"
       clipPathUnits="userSpaceOnUse">
      <path
         inkscape:connector-curvature="0"
         id="path47908"
         d="m 37569.2,41078 c -59.1,0 -107,47.9 -107,107 0,59.1 47.9,107 107,107 59.1,0 107,-47.9 107,-107 0,-59.1 -47.9,-107 -107,-107" />
    </clipPath>
    <clipPath
       id="clipPath47914"
       clipPathUnits="userSpaceOnUse">
      <path
         inkscape:connector-curvature="0"
         id="path47912"
         d="m 35635,41892.8 c -63.6,0 -115.2,51.6 -115.2,115.3 0,63.6 51.6,115.2 115.2,115.2 63.7,0 115.3,-51.6 115.3,-115.2 0,-63.7 -51.6,-115.3 -115.3,-115.3" />
    </clipPath>
    <clipPath
       id="clipPath47918"
       clipPathUnits="userSpaceOnUse">
      <path
         inkscape:connector-curvature="0"
         id="path47916"
         d="m 40556.9,24829 c -63.7,0 -115.2,51.6 -115.2,115.2 0,63.7 51.5,115.2 115.2,115.2 63.6,0 115.2,-51.5 115.2,-115.2 0,-63.6 -51.6,-115.2 -115.2,-115.2" />
    </clipPath>
    <clipPath
       id="clipPath47922"
       clipPathUnits="userSpaceOnUse">
      <path
         inkscape:connector-curvature="0"
         id="path47920"
         d="m 43445.3,31419.5 c -52,0 -94.2,42.2 -94.2,94.2 0,52 42.2,94.1 94.2,94.1 51.9,0 94.1,-42.1 94.1,-94.1 0,-52 -42.2,-94.2 -94.1,-94.2" />
    </clipPath>
    <clipPath
       id="clipPath47926"
       clipPathUnits="userSpaceOnUse">
      <path
         inkscape:connector-curvature="0"
         id="path47924"
         d="m 44645.9,31674.2 c -57.1,0 -103.4,46.3 -103.4,103.4 0,57.1 46.3,103.4 103.4,103.4 57.1,0 103.4,-46.3 103.4,-103.4 0,-57.1 -46.3,-103.4 -103.4,-103.4" />
    </clipPath>
    <clipPath
       id="clipPath47930"
       clipPathUnits="userSpaceOnUse">
      <path
         inkscape:connector-curvature="0"
         id="path47928"
         d="m 49118.6,36536.9 c -63.6,0 -115.2,51.5 -115.2,115.2 0,63.6 51.6,115.2 115.2,115.2 63.7,0 115.3,-51.6 115.3,-115.2 0,-63.7 -51.6,-115.2 -115.3,-115.2" />
    </clipPath>
    <clipPath
       id="clipPath47934"
       clipPathUnits="userSpaceOnUse">
      <path
         inkscape:connector-curvature="0"
         id="path47932"
         d="m 47151.5,36785.8 c -65.9,0 -119.3,53.5 -119.3,119.4 0,65.9 53.4,119.3 119.3,119.3 66,0 119.4,-53.4 119.4,-119.3 0,-65.9 -53.4,-119.4 -119.4,-119.4" />
    </clipPath>
    <clipPath
       id="clipPath47938"
       clipPathUnits="userSpaceOnUse">
      <path
         inkscape:connector-curvature="0"
         id="path47936"
         d="m 1462.93,43804.9 c -61.35,0 -111.11,49.7 -111.11,111.1 0,61.4 49.76,111.1 111.11,111.1 61.37,0 111.12,-49.7 111.12,-111.1 0,-61.4 -49.75,-111.1 -111.12,-111.1" />
    </clipPath>
    <clipPath
       id="clipPath47942"
       clipPathUnits="userSpaceOnUse">
      <path
         inkscape:connector-curvature="0"
         id="path47940"
         d="m 6630.36,43014.9 c -61.36,0 -111.12,49.7 -111.12,111.1 0,61.4 49.76,111.1 111.12,111.1 61.37,0 111.11,-49.7 111.11,-111.1 0,-61.4 -49.74,-111.1 -111.11,-111.1" />
    </clipPath>
    <clipPath
       id="clipPath47946"
       clipPathUnits="userSpaceOnUse">
      <path
         inkscape:connector-curvature="0"
         id="path47944"
         d="m 1731.46,42471.6 c -73.3,0 -132.72,59.4 -132.72,132.7 0,73.3 59.42,132.7 132.72,132.7 73.3,0 132.72,-59.4 132.72,-132.7 0,-73.3 -59.42,-132.7 -132.72,-132.7" />
    </clipPath>
    <clipPath
       id="clipPath47950"
       clipPathUnits="userSpaceOnUse">
      <path
         inkscape:connector-curvature="0"
         id="path47948"
         d="m 4930.36,44976.2 c -73.3,0 -132.72,59.4 -132.72,132.7 0,73.3 59.42,132.7 132.72,132.7 73.29,0 132.72,-59.4 132.72,-132.7 0,-73.3 -59.43,-132.7 -132.72,-132.7" />
    </clipPath>
    <clipPath
       id="clipPath47954"
       clipPathUnits="userSpaceOnUse">
      <path
         inkscape:connector-curvature="0"
         id="path47952"
         d="m 1731.46,38412.9 c -68.19,0 -123.45,55.3 -123.45,123.5 0,68.1 55.26,123.4 123.45,123.4 68.18,0 123.46,-55.3 123.46,-123.4 0,-68.2 -55.28,-123.5 -123.46,-123.5" />
    </clipPath>
    <clipPath
       id="clipPath47958"
       clipPathUnits="userSpaceOnUse">
      <path
         inkscape:connector-curvature="0"
         id="path47956"
         d="m 6287.11,36544.6 c -68.18,0 -123.45,55.2 -123.45,123.4 0,68.2 55.27,123.5 123.45,123.5 68.18,0 123.46,-55.3 123.46,-123.5 0,-68.2 -55.28,-123.4 -123.46,-123.4" />
    </clipPath>
    <clipPath
       id="clipPath47962"
       clipPathUnits="userSpaceOnUse">
      <path
         inkscape:connector-curvature="0"
         id="path47960"
         d="m 1029.81,33807.9 c -63.638,0 -115.232,51.6 -115.232,115.3 0,63.6 51.594,115.2 115.232,115.2 63.64,0 115.23,-51.6 115.23,-115.2 0,-63.7 -51.59,-115.3 -115.23,-115.3" />
    </clipPath>
    <clipPath
       id="clipPath47966"
       clipPathUnits="userSpaceOnUse">
      <path
         inkscape:connector-curvature="0"
         id="path47964"
         d="m 36400.5,35469 c -75,0 -135.8,60.7 -135.8,135.8 0,75 60.8,135.8 135.8,135.8 75,0 135.8,-60.8 135.8,-135.8 0,-75.1 -60.8,-135.8 -135.8,-135.8" />
    </clipPath>
    <clipPath
       id="clipPath752-0"
       clipPathUnits="userSpaceOnUse">
      <path
         inkscape:connector-curvature="0"
         id="path750-6"
         d="m 35421.1,21693.7 c -54.6,0 -98.8,44.2 -98.8,98.7 0,54.6 44.2,98.8 98.8,98.8 54.5,0 98.7,-44.2 98.7,-98.8 0,-54.5 -44.2,-98.7 -98.7,-98.7" />
    </clipPath>
    <radialGradient
       id="radialGradient762-2"
       spreadMethod="pad"
       gradientTransform="matrix(25000,0,0,-25000,25000,25000)"
       gradientUnits="userSpaceOnUse"
       r="1"
       cy="0"
       cx="0"
       fy="0"
       fx="0">
      <stop
         id="stop756-9"
         offset="0"
         style="stop-opacity:1;stop-color:#e7e5d0" />
      <stop
         id="stop758-9"
         offset="0.45699"
         style="stop-opacity:1;stop-color:#7c9270" />
      <stop
         id="stop760-0"
         offset="1"
         style="stop-opacity:1;stop-color:#3e492e" />
    </radialGradient>
  </defs>
  <sodipodi:namedview
     id="base"
     pagecolor="#ffffff"
     bordercolor="#666666"
     borderopacity="1.0"
     inkscape:pageopacity="0.0"
     inkscape:pageshadow="2"
     inkscape:zoom="0.65291292"
     inkscape:cx="94.339027"
     inkscape:cy="304.18838"
     inkscape:document-units="mm"
     inkscape:current-layer="layer1"
     showgrid="false"
     inkscape:window-width="1366"
     inkscape:window-height="691"
     inkscape:window-x="0"
     inkscape:window-y="0"
     inkscape:window-maximized="1"
     fit-margin-top="0"
     fit-margin-left="0"
     fit-margin-right="0"
     fit-margin-bottom="0"
     showguides="true"
     inkscape:guide-bbox="true">
    <sodipodi:guide
       position="212.69547,264.42295"
       orientation="0,1"
       id="guide54858"
       inkscape:locked="false" />
  </sodipodi:namedview>
  <metadata
     id="metadata48690">
    <rdf:RDF>
      <cc:Work
         rdf:about="">
        <dc:format>image/svg+xml</dc:format>
        <dc:type
           rdf:resource="http://purl.org/dc/dcmitype/StillImage" />
        <dc:title></dc:title>
      </cc:Work>
    </rdf:RDF>
  </metadata>
  <g
     inkscape:label="Camada 1"
     inkscape:groupmode="layer"
     id="layer1"
     transform="translate(52.307058,-261.97328)">
    <g
       transform="matrix(0.23764274,0,0,-0.28237619,-220.39866,304.34637)"
       id="g39557">
      <path
         inkscape:connector-curvature="0"
         id="path39549"
         style="fill:#2b5537;fill-opacity:1;fill-rule:nonzero;stroke:none;stroke-width:0.1"
         d="m 858.193,95.959 c 0,-4.736 -0.609,-9.327 -1.759,-13.7059 H 707.387 c -0.039,0.7438 -0.058,1.4981 -0.058,2.252 0,5.3937 1.005,10.5551 2.832,15.3008 6.148,15.9971 21.661,27.3451 39.823,27.3451 3.161,0 6.235,-0.348 9.201,-1.006 8.604,12.778 22.513,21.681 38.567,23.546 2.079,0.242 4.195,0.368 6.331,0.368 29.887,0 54.11,-24.223 54.11,-54.1" />
      <path
         inkscape:connector-curvature="0"
         id="path39551"
         style="fill:#428533;fill-opacity:1;fill-rule:nonzero;stroke:none;stroke-width:0.1"
         d="m 840.24541,121.38213 c -7.887,-17.331 -26.001,-29.462102 -47.101,-29.462102 -9.347,0 -18.104,2.3973 -25.654,6.5531 -7.548,-4.1558 -16.315,-6.5531 -25.662,-6.5531 -9.598,0 -18.577,2.5129 -26.262,6.911001 6.148,15.997101 21.661,27.345101 39.823,27.345101 3.16,0 6.235,-0.348 9.201,-1.006 8.603,12.778 22.513,21.681 38.567,23.546 16.558,-2.058 30.438,-12.701 37.088,-27.334" />
      <path
         inkscape:connector-curvature="0"
         id="path39553"
         style="fill:#6aa72f;fill-opacity:1;fill-rule:nonzero;stroke:none;stroke-width:0.1"
         d="m 830.3789,131.71649 c -2.412,2.743 -5.377,5.061 -8.61,6.761 -2.488,1.308 -5.958,0.716 -7.356,-1.929 -1.311,-2.481 -0.729,-5.958 1.929,-7.356 0.673,-0.354 1.335,-0.726 1.978,-1.134 0.286,-0.181 0.567,-0.368 0.845,-0.56 0.079,-0.055 0.386,-0.288 0.525,-0.39 1.11,-0.915 2.136,-1.915 3.086,-2.996 1.863,-2.118 5.725,-2.045 7.603,0 2.074,2.26 1.988,5.344 0,7.604" />
      <path
         inkscape:connector-curvature="0"
         id="path39555"
         style="fill:#6aa72f;fill-opacity:1;fill-rule:nonzero;stroke:none;stroke-width:0.1"
         d="m 810.04046,145.49623 c -0.932,0.932 -2.463,1.634 -3.802,1.575 -1.39,-0.063 -2.832,-0.52 -3.802,-1.575 -0.965,-1.052 -1.574,-2.345 -1.574,-3.802 v -0.538 c 0,-1.378 0.6,-2.826 1.574,-3.801 0.933,-0.933 2.463,-1.635 3.802,-1.575 1.391,0.062 2.833,0.519 3.802,1.575 0.966,1.052 1.575,2.345 1.575,3.801 v 0.538 c 0,1.379 -0.6,2.827 -1.575,3.802" />
    </g>
  </g>
</svg>
